[gd_scene load_steps=5 format=2]

[ext_resource path="res://enemy/Idle.png" type="Texture" id=1]
[ext_resource path="res://enemy/enemy.gd" type="Script" id=2]

[sub_resource type="RectangleShape2D" id=1]
extents = Vector2( 21.7996, 21.8229 )

[sub_resource type="RectangleShape2D" id=2]
extents = Vector2( 21.7996, 22.4224 )

[node name="enemy" type="KinematicBody2D"]
script = ExtResource( 2 )

[node name="Sprite" type="Sprite" parent="."]
texture = ExtResource( 1 )

[node name="colide_with_objs" type="CollisionShape2D" parent="."]
position = Vector2( 0.449673, 0.449673 )
scale = Vector2( 0.95, 0.95 )
shape = SubResource( 1 )

[node name="Area2D" type="Area2D" parent="."]

[node name="hit_box" type="CollisionShape2D" parent="Area2D"]
position = Vector2( 0.449669, -0.149891 )
scale = Vector2( 1.1, 1.1 )
shape = SubResource( 2 )
[connection signal="body_entered" from="Area2D" to="." method="_on_Area2D_body_entered"]
