; Engine configuration file.
; It's best edited using the editor UI and not directly,
; since the parameters that go here are not all obvious.
;
; Format:
;   [section] ; section goes between []
;   param=value ; assign values to parameters

config_version=4

_global_script_classes=[  ]
_global_script_class_icons={

}

[application]

config/name="2d-platform-demo"
run/main_scene="res://menu/menu.tscn"

[display]

window/size/width=640
window/size/height=320

[rendering]

environment/default_clear_color=Color( 0.305882, 0.596078, 0.878431, 1 )
environment/default_environment="res://default_env.tres"
