[gd_scene load_steps=2 format=2]

[ext_resource path="res://checkpoint_msg/win.gd" type="Script" id=1]

[node name="Node2D" type="Node2D"]
script = ExtResource( 1 )

[node name="ColorRect" type="ColorRect" parent="."]
margin_right = 645.0
margin_bottom = 325.0
color = Color( 0.0235294, 0.0235294, 0.0235294, 1 )
__meta__ = {
"_edit_use_anchors_": false
}

[node name="Label" type="Label" parent="."]
margin_left = 279.299
margin_top = 150.099
margin_right = 364.299
margin_bottom = 164.099
text = "You won!"
align = 1
valign = 1
__meta__ = {
"_edit_use_anchors_": false
}

[node name="Timer" type="Timer" parent="."]
[connection signal="timeout" from="Timer" to="." method="_on_Timer_timeout"]
